1 10 20
100 200 125
201 210 89
900 1000 174
68 772 171
132 135 42
2475 2933 217
9111 10060 260
8020 8540 234
5218 5778 236
5139 5963 236
778 1091 179
6240 6712 244
3795 3922 176
4761 5428 210
5440 5779 236
5145 5357 192
4584 5561 210
9423 9780 198
4209 4854 215
9178 9426 260
786 1583 182
6401 7304 257
5392 5430 161
5913 6813 262
9902 10487 255
1066 1397 182
5215 6098 236
2582 2602 178
6554 7213 257
4690 5542 210
2677 2682 72
4064 5038 215
7076 7880 239
2013 2906 209
9681 9971 242
2828 2920 217
4173 4647 215
8298 8620 234
1867 2199 175
190 1088 179
7611 8013 252
9766 10665 255
9393 9482 198
1396 2075 180
4591 5397 210
9941 10196 224
3238 3340 181
4887 5707 236
4915 5207 210
7624 8279 252
4107 4787 215
1479 2118 180
733 1328 182
2555 3255 217
1153 1453 182
1930 2084 175
9106 10105 260
4453 4929 210
6475 6586 213
7938 8405 252
506 560 137
6033 6395 262
2704 3325 217
1925 2824 209
7439 7517 208
3360 3849 238
4668 5302 210
1906 2117 175
3818 4768 215
579 1092 179
5360 5596 236
3049 3937 238
1708 2698 209
8472 9419 260
3523 4060 238
6795 6821 182
2292 2958 217
5020 5683 236
7628 8273 252
8483 9333 260
3579 3668 163
4542 5349 210
9687 10648 255
5299 5634 236
3732 4515 215
3830 4091 189
5551 5740 236
2935 3631 199
3723 4647 215
5332 6197 262
7481 7772 208
6207 6748 244
6667 7053 257
885 1697 182
8823 9179 247
5858 5915 174
9823 10588 255
2570 3025 217
9313 9417 198
4622 4803 197
9409 10315 242
3543 4005 238
999 1904 182
2999 3072 155
4599 4701 184
5618 5769 205
6755 7575 257
5788 6189 262
3496 3736 238
9549 10396 242
2476 3369 217
1114 2056 182
6358 6586 213
9637 9899 242
8125 8953 234
6121 6378 262
4948 5814 236
7233 7738 239
9520 9924 242
3673 3781 238
2348 2708 209
7550 7941 221
9255 10010 260
4421 4454 184
4874 4968 210
5214 5685 236
943 1849 182
219 432 144
8586 8871 216
8246 9209 247
6875 7697 257
8278 9257 260
1188 1728 180
6613 7257 257
7978 8831 234
3403 3453 150
7731 8434 252
7772 8642 252
2158 2829 209
4855 5017 210
7795 8408 252
1391 1859 180
8617 9545 260
2804 3346 217
4537 5161 210
977 1494 182
4738 5299 210
2966 3202 199
5744 6725 262
9031 9613 260
1940 1463 180
2533 2584 178
2130 2959 217
1467 2082 180
